{
  "name": "favoritos",
  "plural": "favoritos",
  "base": "PersistedModel",
  "idInjection": true,
  "options": {
    "validateUpsert": true
  },
  "properties": {
    "idUser": {
      "type": "string",
      "required": true
    },
    "restaurantes": {
      "type": [
        "string"
      ],
      "required": true
    }
  },
  "validations": [],
  "relations": {},
  "acls": [],
  "methods": {}
}
